%YAML 1.1
%TAG !u! tag:unity3d.com,2011:
--- !u!29 &1
OcclusionCullingSettings:
  m_ObjectHideFlags: 0
  serializedVersion: 2
  m_OcclusionBakeSettings:
    smallestOccluder: 5
    smallestHole: 0.25
    backfaceThreshold: 100
  m_SceneGUID: 00000000000000000000000000000000
  m_OcclusionCullingData: {fileID: 0}
--- !u!104 &2
RenderSettings:
  m_ObjectHideFlags: 0
  serializedVersion: 9
  m_Fog: 0
  m_FogColor: {r: 0.5, g: 0.5, b: 0.5, a: 1}
  m_FogMode: 3
  m_FogDensity: 0.01
  m_LinearFogStart: 0
  m_LinearFogEnd: 300
  m_AmbientSkyColor: {r: 0.212, g: 0.227, b: 0.259, a: 1}
  m_AmbientEquatorColor: {r: 0.114, g: 0.125, b: 0.133, a: 1}
  m_AmbientGroundColor: {r: 0.047, g: 0.043, b: 0.035, a: 1}
  m_AmbientIntensity: 1
  m_AmbientMode: 0
  m_SubtractiveShadowColor: {r: 0.42, g: 0.478, b: 0.627, a: 1}
  m_SkyboxMaterial: {fileID: 10304, guid: 0000000000000000f000000000000000, type: 0}
  m_HaloStrength: 0.5
  m_FlareStrength: 1
  m_FlareFadeSpeed: 3
  m_HaloTexture: {fileID: 0}
  m_SpotCookie: {fileID: 10001, guid: 0000000000000000e000000000000000, type: 0}
  m_DefaultReflectionMode: 0
  m_DefaultReflectionResolution: 128
  m_ReflectionBounces: 1
  m_ReflectionIntensity: 1
  m_CustomReflection: {fileID: 0}
  m_Sun: {fileID: 0}
  m_IndirectSpecularColor: {r: 0.37311953, g: 0.38074014, b: 0.3587274, a: 1}
  m_UseRadianceAmbientProbe: 0
--- !u!157 &3
LightmapSettings:
  m_ObjectHideFlags: 0
  serializedVersion: 11
  m_GIWorkflowMode: 1
  m_GISettings:
    serializedVersion: 2
    m_BounceScale: 1
    m_IndirectOutputScale: 1
    m_AlbedoBoost: 1
    m_EnvironmentLightingMode: 0
    m_EnableBakedLightmaps: 1
    m_EnableRealtimeLightmaps: 0
  m_LightmapEditorSettings:
    serializedVersion: 12
    m_Resolution: 2
    m_BakeResolution: 40
    m_AtlasSize: 1024
    m_AO: 0
    m_AOMaxDistance: 1
    m_CompAOExponent: 1
    m_CompAOExponentDirect: 0
    m_ExtractAmbientOcclusion: 0
    m_Padding: 2
    m_LightmapParameters: {fileID: 0}
    m_LightmapsBakeMode: 1
    m_TextureCompression: 1
    m_FinalGather: 0
    m_FinalGatherFiltering: 1
    m_FinalGatherRayCount: 256
    m_ReflectionCompression: 2
    m_MixedBakeMode: 2
    m_BakeBackend: 1
    m_PVRSampling: 1
    m_PVRDirectSampleCount: 32
    m_PVRSampleCount: 512
    m_PVRBounces: 2
    m_PVREnvironmentSampleCount: 256
    m_PVREnvironmentReferencePointCount: 2048
    m_PVRFilteringMode: 1
    m_PVRDenoiserTypeDirect: 1
    m_PVRDenoiserTypeIndirect: 1
    m_PVRDenoiserTypeAO: 1
    m_PVRFilterTypeDirect: 0
    m_PVRFilterTypeIndirect: 0
    m_PVRFilterTypeAO: 0
    m_PVREnvironmentMIS: 1
    m_PVRCulling: 1
    m_PVRFilteringGaussRadiusDirect: 1
    m_PVRFilteringGaussRadiusIndirect: 5
    m_PVRFilteringGaussRadiusAO: 2
    m_PVRFilteringAtrousPositionSigmaDirect: 0.5
    m_PVRFilteringAtrousPositionSigmaIndirect: 2
    m_PVRFilteringAtrousPositionSigmaAO: 1
    m_ExportTrainingData: 0
    m_TrainingDataDestination: TrainingData
    m_LightProbeSampleCountMultiplier: 4
  m_LightingDataAsset: {fileID: 0}
  m_UseShadowmask: 1
--- !u!196 &4
NavMeshSettings:
  serializedVersion: 2
  m_ObjectHideFlags: 0
  m_BuildSettings:
    serializedVersion: 2
    agentTypeID: 0
    agentRadius: 0.5
    agentHeight: 2
    agentSlope: 45
    agentClimb: 0.4
    ledgeDropHeight: 0
    maxJumpAcrossDistance: 0
    minRegionArea: 2
    manualCellSize: 0
    cellSize: 0.16666667
    manualTileSize: 0
    tileSize: 256
    accuratePlacement: 0
    debug:
      m_Flags: 0
  m_NavMeshData: {fileID: 0}
--- !u!1 &351301141
GameObject:
  m_ObjectHideFlags: 0
  m_CorrespondingSourceObject: {fileID: 0}
  m_PrefabInstance: {fileID: 0}
  m_PrefabAsset: {fileID: 0}
  serializedVersion: 6
  m_Component:
  - component: {fileID: 351301145}
  - component: {fileID: 351301144}
  - component: {fileID: 351301143}
  - component: {fileID: 351301142}
  m_Layer: 5
  m_Name: Canvas
  m_TagString: Untagged
  m_Icon: {fileID: 0}
  m_NavMeshLayer: 0
  m_StaticEditorFlags: 0
  m_IsActive: 0
--- !u!114 &351301142
MonoBehaviour:
  m_ObjectHideFlags: 0
  m_CorrespondingSourceObject: {fileID: 0}
  m_PrefabInstance: {fileID: 0}
  m_PrefabAsset: {fileID: 0}
  m_GameObject: {fileID: 351301141}
  m_Enabled: 1
  m_EditorHideFlags: 0
  m_Script: {fileID: 11500000, guid: dc42784cf147c0c48a680349fa168899, type: 3}
  m_Name: 
  m_EditorClassIdentifier: 
  m_IgnoreReversedGraphics: 1
  m_BlockingObjects: 0
  m_BlockingMask:
    serializedVersion: 2
    m_Bits: 4294967295
--- !u!114 &351301143
MonoBehaviour:
  m_ObjectHideFlags: 0
  m_CorrespondingSourceObject: {fileID: 0}
  m_PrefabInstance: {fileID: 0}
  m_PrefabAsset: {fileID: 0}
  m_GameObject: {fileID: 351301141}
  m_Enabled: 1
  m_EditorHideFlags: 0
  m_Script: {fileID: 11500000, guid: 0cd44c1031e13a943bb63640046fad76, type: 3}
  m_Name: 
  m_EditorClassIdentifier: 
  m_UiScaleMode: 0
  m_ReferencePixelsPerUnit: 100
  m_ScaleFactor: 1
  m_ReferenceResolution: {x: 800, y: 600}
  m_ScreenMatchMode: 0
  m_MatchWidthOrHeight: 0
  m_PhysicalUnit: 3
  m_FallbackScreenDPI: 96
  m_DefaultSpriteDPI: 96
  m_DynamicPixelsPerUnit: 1
--- !u!223 &351301144
Canvas:
  m_ObjectHideFlags: 0
  m_CorrespondingSourceObject: {fileID: 0}
  m_PrefabInstance: {fileID: 0}
  m_PrefabAsset: {fileID: 0}
  m_GameObject: {fileID: 351301141}
  m_Enabled: 1
  serializedVersion: 3
  m_RenderMode: 0
  m_Camera: {fileID: 0}
  m_PlaneDistance: 100
  m_PixelPerfect: 0
  m_ReceivesEvents: 1
  m_OverrideSorting: 0
  m_OverridePixelPerfect: 0
  m_SortingBucketNormalizedSize: 0
  m_AdditionalShaderChannelsFlag: 0
  m_SortingLayerID: 0
  m_SortingOrder: 0
  m_TargetDisplay: 0
--- !u!224 &351301145
RectTransform:
  m_ObjectHideFlags: 0
  m_CorrespondingSourceObject: {fileID: 0}
  m_PrefabInstance: {fileID: 0}
  m_PrefabAsset: {fileID: 0}
  m_GameObject: {fileID: 351301141}
  m_LocalRotation: {x: 0, y: 0, z: 0, w: 1}
  m_LocalPosition: {x: 0, y: 0, z: 0}
  m_LocalScale: {x: 0, y: 0, z: 0}
  m_Children:
  - {fileID: 1167527765}
  m_Father: {fileID: 0}
  m_RootOrder: 2
  m_LocalEulerAnglesHint: {x: 0, y: 0, z: 0}
  m_AnchorMin: {x: 0, y: 0}
  m_AnchorMax: {x: 0, y: 0}
  m_AnchoredPosition: {x: 0, y: 0}
  m_SizeDelta: {x: 0, y: 0}
  m_Pivot: {x: 0, y: 0}
--- !u!4 &533741484 stripped
Transform:
  m_CorrespondingSourceObject: {fileID: 6620318047286705489, guid: c7418eff6e141254a8a148532f89f82a,
    type: 3}
  m_PrefabInstance: {fileID: 3700398643977814927}
  m_PrefabAsset: {fileID: 0}
--- !u!1001 &615698823
PrefabInstance:
  m_ObjectHideFlags: 0
  serializedVersion: 2
  m_Modification:
    m_TransformParent: {fileID: 0}
    m_Modifications:
    - target: {fileID: 4384491270497856104, guid: 3234c50a6f4d62e4abcd6b5c9ae11bff,
        type: 3}
      propertyPath: CollisionModule.plane0
      value: 
      objectReference: {fileID: 533741484}
    - target: {fileID: 4384491271145790566, guid: 3234c50a6f4d62e4abcd6b5c9ae11bff,
        type: 3}
      propertyPath: m_IsActive
      value: 0
      objectReference: {fileID: 0}
    - target: {fileID: 4384491271145790584, guid: 3234c50a6f4d62e4abcd6b5c9ae11bff,
        type: 3}
      propertyPath: CollisionModule.plane0
      value: 
      objectReference: {fileID: 533741484}
    - target: {fileID: 4975840917804750109, guid: 3234c50a6f4d62e4abcd6b5c9ae11bff,
        type: 3}
      propertyPath: efectoParticulas
      value: 
      objectReference: {fileID: 1644682776}
    - target: {fileID: 4975840918537154322, guid: 3234c50a6f4d62e4abcd6b5c9ae11bff,
        type: 3}
      propertyPath: m_RootOrder
      value: 4
      objectReference: {fileID: 0}
    - target: {fileID: 4975840918537154322, guid: 3234c50a6f4d62e4abcd6b5c9ae11bff,
        type: 3}
      propertyPath: m_LocalPosition.x
      value: 0
      objectReference: {fileID: 0}
    - target: {fileID: 4975840918537154322, guid: 3234c50a6f4d62e4abcd6b5c9ae11bff,
        type: 3}
      propertyPath: m_LocalPosition.y
      value: 0
      objectReference: {fileID: 0}
    - target: {fileID: 4975840918537154322, guid: 3234c50a6f4d62e4abcd6b5c9ae11bff,
        type: 3}
      propertyPath: m_LocalPosition.z
      value: 0
      objectReference: {fileID: 0}
    - target: {fileID: 4975840918537154322, guid: 3234c50a6f4d62e4abcd6b5c9ae11bff,
        type: 3}
      propertyPath: m_LocalRotation.w
      value: 1
      objectReference: {fileID: 0}
    - target: {fileID: 4975840918537154322, guid: 3234c50a6f4d62e4abcd6b5c9ae11bff,
        type: 3}
      propertyPath: m_LocalRotation.x
      value: 0
      objectReference: {fileID: 0}
    - target: {fileID: 4975840918537154322, guid: 3234c50a6f4d62e4abcd6b5c9ae11bff,
        type: 3}
      propertyPath: m_LocalRotation.y
      value: 0
      objectReference: {fileID: 0}
    - target: {fileID: 4975840918537154322, guid: 3234c50a6f4d62e4abcd6b5c9ae11bff,
        type: 3}
      propertyPath: m_LocalRotation.z
      value: 0
      objectReference: {fileID: 0}
    - target: {fileID: 4975840918537154322, guid: 3234c50a6f4d62e4abcd6b5c9ae11bff,
        type: 3}
      propertyPath: m_LocalEulerAnglesHint.x
      value: 0
      objectReference: {fileID: 0}
    - target: {fileID: 4975840918537154322, guid: 3234c50a6f4d62e4abcd6b5c9ae11bff,
        type: 3}
      propertyPath: m_LocalEulerAnglesHint.y
      value: 0
      objectReference: {fileID: 0}
    - target: {fileID: 4975840918537154322, guid: 3234c50a6f4d62e4abcd6b5c9ae11bff,
        type: 3}
      propertyPath: m_LocalEulerAnglesHint.z
      value: 0
      objectReference: {fileID: 0}
    - target: {fileID: 4975840918537154344, guid: 3234c50a6f4d62e4abcd6b5c9ae11bff,
        type: 3}
      propertyPath: m_Name
      value: Player
      objectReference: {fileID: 0}
    m_RemovedComponents: []
  m_SourcePrefab: {fileID: 100100000, guid: 3234c50a6f4d62e4abcd6b5c9ae11bff, type: 3}
--- !u!1 &1152156624
GameObject:
  m_ObjectHideFlags: 0
  m_CorrespondingSourceObject: {fileID: 0}
  m_PrefabInstance: {fileID: 0}
  m_PrefabAsset: {fileID: 0}
  serializedVersion: 6
  m_Component:
  - component: {fileID: 1152156627}
  - component: {fileID: 1152156626}
  - component: {fileID: 1152156625}
  m_Layer: 0
  m_Name: EventSystem
  m_TagString: Untagged
  m_Icon: {fileID: 0}
  m_NavMeshLayer: 0
  m_StaticEditorFlags: 0
  m_IsActive: 1
--- !u!114 &1152156625
MonoBehaviour:
  m_ObjectHideFlags: 0
  m_CorrespondingSourceObject: {fileID: 0}
  m_PrefabInstance: {fileID: 0}
  m_PrefabAsset: {fileID: 0}
  m_GameObject: {fileID: 1152156624}
  m_Enabled: 1
  m_EditorHideFlags: 0
  m_Script: {fileID: 11500000, guid: 4f231c4fb786f3946a6b90b886c48677, type: 3}
  m_Name: 
  m_EditorClassIdentifier: 
  m_HorizontalAxis: Horizontal
  m_VerticalAxis: Vertical
  m_SubmitButton: Submit
  m_CancelButton: Cancel
  m_InputActionsPerSecond: 10
  m_RepeatDelay: 0.5
  m_ForceModuleActive: 0
--- !u!114 &1152156626
MonoBehaviour:
  m_ObjectHideFlags: 0
  m_CorrespondingSourceObject: {fileID: 0}
  m_PrefabInstance: {fileID: 0}
  m_PrefabAsset: {fileID: 0}
  m_GameObject: {fileID: 1152156624}
  m_Enabled: 1
  m_EditorHideFlags: 0
  m_Script: {fileID: 11500000, guid: 76c392e42b5098c458856cdf6ecaaaa1, type: 3}
  m_Name: 
  m_EditorClassIdentifier: 
  m_FirstSelected: {fileID: 0}
  m_sendNavigationEvents: 1
  m_DragThreshold: 10
--- !u!4 &1152156627
Transform:
  m_ObjectHideFlags: 0
  m_CorrespondingSourceObject: {fileID: 0}
  m_PrefabInstance: {fileID: 0}
  m_PrefabAsset: {fileID: 0}
  m_GameObject: {fileID: 1152156624}
  m_LocalRotation: {x: 0, y: 0, z: 0, w: 1}
  m_LocalPosition: {x: 0, y: 0, z: 0}
  m_LocalScale: {x: 1, y: 1, z: 1}
  m_Children: []
  m_Father: {fileID: 0}
  m_RootOrder: 3
  m_LocalEulerAnglesHint: {x: 0, y: 0, z: 0}
--- !u!1 &1167527764
GameObject:
  m_ObjectHideFlags: 0
  m_CorrespondingSourceObject: {fileID: 0}
  m_PrefabInstance: {fileID: 0}
  m_PrefabAsset: {fileID: 0}
  serializedVersion: 6
  m_Component:
  - component: {fileID: 1167527765}
  - component: {fileID: 1167527767}
  - component: {fileID: 1167527766}
  m_Layer: 5
  m_Name: AdviceLight
  m_TagString: Untagged
  m_Icon: {fileID: 0}
  m_NavMeshLayer: 0
  m_StaticEditorFlags: 0
  m_IsActive: 1
--- !u!224 &1167527765
RectTransform:
  m_ObjectHideFlags: 0
  m_CorrespondingSourceObject: {fileID: 0}
  m_PrefabInstance: {fileID: 0}
  m_PrefabAsset: {fileID: 0}
  m_GameObject: {fileID: 1167527764}
  m_LocalRotation: {x: 0, y: 0, z: 0, w: 1}
  m_LocalPosition: {x: 0, y: 0, z: 0}
  m_LocalScale: {x: 1, y: 1, z: 1}
  m_Children: []
  m_Father: {fileID: 351301145}
  m_RootOrder: 0
  m_LocalEulerAnglesHint: {x: 0, y: 0, z: 0}
  m_AnchorMin: {x: 0.292331, y: 0.43785065}
  m_AnchorMax: {x: 0.689, y: 0.6118507}
  m_AnchoredPosition: {x: -0.25, y: 0.47999954}
  m_SizeDelta: {x: -1.497406, y: 0.95632935}
  m_Pivot: {x: 0.5, y: 0.5}
--- !u!114 &1167527766
MonoBehaviour:
  m_ObjectHideFlags: 0
  m_CorrespondingSourceObject: {fileID: 0}
  m_PrefabInstance: {fileID: 0}
  m_PrefabAsset: {fileID: 0}
  m_GameObject: {fileID: 1167527764}
  m_Enabled: 1
  m_EditorHideFlags: 0
  m_Script: {fileID: 11500000, guid: 5f7201a12d95ffc409449d95f23cf332, type: 3}
  m_Name: 
  m_EditorClassIdentifier: 
  m_Material: {fileID: 0}
  m_Color: {r: 0.19607843, g: 0.19607843, b: 0.19607843, a: 1}
  m_RaycastTarget: 1
  m_Maskable: 1
  m_OnCullStateChanged:
    m_PersistentCalls:
      m_Calls: []
  m_FontData:
    m_Font: {fileID: 10102, guid: 0000000000000000e000000000000000, type: 0}
    m_FontSize: 14
    m_FontStyle: 0
    m_BestFit: 0
    m_MinSize: 10
    m_MaxSize: 40
    m_Alignment: 4
    m_AlignByGeometry: 0
    m_RichText: 1
    m_HorizontalOverflow: 0
    m_VerticalOverflow: 0
    m_LineSpacing: 1
  m_Text: Right Button to Light
--- !u!222 &1167527767
CanvasRenderer:
  m_ObjectHideFlags: 0
  m_CorrespondingSourceObject: {fileID: 0}
  m_PrefabInstance: {fileID: 0}
  m_PrefabAsset: {fileID: 0}
  m_GameObject: {fileID: 1167527764}
  m_CullTransparentMesh: 0
--- !u!198 &1644682776 stripped
ParticleSystem:
  m_CorrespondingSourceObject: {fileID: 2378800321066952113, guid: 65942236983be0d46a68ea74b8af05d5,
    type: 3}
  m_PrefabInstance: {fileID: 6029365458710279413}
  m_PrefabAsset: {fileID: 0}
--- !u!1001 &3700398643977814927
PrefabInstance:
  m_ObjectHideFlags: 0
  serializedVersion: 2
  m_Modification:
    m_TransformParent: {fileID: 0}
    m_Modifications:
    - target: {fileID: 6620318046756831256, guid: c7418eff6e141254a8a148532f89f82a,
        type: 3}
      propertyPath: m_Size.y
      value: 74.256355
      objectReference: {fileID: 0}
    - target: {fileID: 6620318046756831256, guid: c7418eff6e141254a8a148532f89f82a,
        type: 3}
      propertyPath: m_Size.z
      value: 99.18123
      objectReference: {fileID: 0}
    - target: {fileID: 6620318046756831256, guid: c7418eff6e141254a8a148532f89f82a,
        type: 3}
      propertyPath: m_Center.x
      value: 0.004295135
      objectReference: {fileID: 0}
    - target: {fileID: 6620318046756831256, guid: c7418eff6e141254a8a148532f89f82a,
        type: 3}
      propertyPath: m_Center.y
      value: 1.6592793
      objectReference: {fileID: 0}
    - target: {fileID: 6620318046756831256, guid: c7418eff6e141254a8a148532f89f82a,
        type: 3}
      propertyPath: m_Center.z
      value: -16.904146
      objectReference: {fileID: 0}
    - target: {fileID: 6620318047322991828, guid: c7418eff6e141254a8a148532f89f82a,
        type: 3}
      propertyPath: m_RootOrder
      value: 0
      objectReference: {fileID: 0}
    - target: {fileID: 6620318047322991828, guid: c7418eff6e141254a8a148532f89f82a,
        type: 3}
      propertyPath: m_LocalPosition.x
      value: 0
      objectReference: {fileID: 0}
    - target: {fileID: 6620318047322991828, guid: c7418eff6e141254a8a148532f89f82a,
        type: 3}
      propertyPath: m_LocalPosition.y
      value: 0
      objectReference: {fileID: 0}
    - target: {fileID: 6620318047322991828, guid: c7418eff6e141254a8a148532f89f82a,
        type: 3}
      propertyPath: m_LocalPosition.z
      value: 0
      objectReference: {fileID: 0}
    - target: {fileID: 6620318047322991828, guid: c7418eff6e141254a8a148532f89f82a,
        type: 3}
      propertyPath: m_LocalRotation.w
      value: 1
      objectReference: {fileID: 0}
    - target: {fileID: 6620318047322991828, guid: c7418eff6e141254a8a148532f89f82a,
        type: 3}
      propertyPath: m_LocalRotation.x
      value: 0
      objectReference: {fileID: 0}
    - target: {fileID: 6620318047322991828, guid: c7418eff6e141254a8a148532f89f82a,
        type: 3}
      propertyPath: m_LocalRotation.y
      value: 0
      objectReference: {fileID: 0}
    - target: {fileID: 6620318047322991828, guid: c7418eff6e141254a8a148532f89f82a,
        type: 3}
      propertyPath: m_LocalRotation.z
      value: 0
      objectReference: {fileID: 0}
    - target: {fileID: 6620318047322991828, guid: c7418eff6e141254a8a148532f89f82a,
        type: 3}
      propertyPath: m_LocalEulerAnglesHint.x
      value: 0
      objectReference: {fileID: 0}
    - target: {fileID: 6620318047322991828, guid: c7418eff6e141254a8a148532f89f82a,
        type: 3}
      propertyPath: m_LocalEulerAnglesHint.y
      value: 0
      objectReference: {fileID: 0}
    - target: {fileID: 6620318047322991828, guid: c7418eff6e141254a8a148532f89f82a,
        type: 3}
      propertyPath: m_LocalEulerAnglesHint.z
      value: 0
      objectReference: {fileID: 0}
    - target: {fileID: 6620318047322991829, guid: c7418eff6e141254a8a148532f89f82a,
        type: 3}
      propertyPath: m_Name
      value: DojoDark
      objectReference: {fileID: 0}
    - target: {fileID: 6620318047699900783, guid: c7418eff6e141254a8a148532f89f82a,
        type: 3}
      propertyPath: m_Size.z
      value: 70.191536
      objectReference: {fileID: 0}
    - target: {fileID: 6620318047699900783, guid: c7418eff6e141254a8a148532f89f82a,
        type: 3}
      propertyPath: m_Center.x
      value: 0.004295135
      objectReference: {fileID: 0}
    - target: {fileID: 6620318047699900783, guid: c7418eff6e141254a8a148532f89f82a,
        type: 3}
      propertyPath: m_Center.y
      value: 2.9972477
      objectReference: {fileID: 0}
    - target: {fileID: 6620318047699900783, guid: c7418eff6e141254a8a148532f89f82a,
        type: 3}
      propertyPath: m_Center.z
      value: 2.632214
      objectReference: {fileID: 0}
    - target: {fileID: 6620318047815646959, guid: c7418eff6e141254a8a148532f89f82a,
        type: 3}
      propertyPath: m_Size.y
      value: 73.99424
      objectReference: {fileID: 0}
    - target: {fileID: 6620318047815646959, guid: c7418eff6e141254a8a148532f89f82a,
        type: 3}
      propertyPath: m_Size.z
      value: 90.94981
      objectReference: {fileID: 0}
    - target: {fileID: 6620318047815646959, guid: c7418eff6e141254a8a148532f89f82a,
        type: 3}
      propertyPath: m_Center.x
      value: 0.004295135
      objectReference: {fileID: 0}
    - target: {fileID: 6620318047815646959, guid: c7418eff6e141254a8a148532f89f82a,
        type: 3}
      propertyPath: m_Center.y
      value: 1.8192979
      objectReference: {fileID: 0}
    - target: {fileID: 6620318047815646959, guid: c7418eff6e141254a8a148532f89f82a,
        type: 3}
      propertyPath: m_Center.z
      value: -12.788472
      objectReference: {fileID: 0}
    m_RemovedComponents: []
  m_SourcePrefab: {fileID: 100100000, guid: c7418eff6e141254a8a148532f89f82a, type: 3}
--- !u!1001 &6029365458710279413
PrefabInstance:
  m_ObjectHideFlags: 0
  serializedVersion: 2
  m_Modification:
    m_TransformParent: {fileID: 0}
    m_Modifications:
    - target: {fileID: 2378800321066952111, guid: 65942236983be0d46a68ea74b8af05d5,
        type: 3}
      propertyPath: m_Name
      value: WaveParticles
      objectReference: {fileID: 0}
    - target: {fileID: 2378800321066952111, guid: 65942236983be0d46a68ea74b8af05d5,
        type: 3}
      propertyPath: m_IsActive
      value: 1
      objectReference: {fileID: 0}
    - target: {fileID: 2378800321066952112, guid: 65942236983be0d46a68ea74b8af05d5,
        type: 3}
      propertyPath: m_RootOrder
      value: 1
      objectReference: {fileID: 0}
    - target: {fileID: 2378800321066952112, guid: 65942236983be0d46a68ea74b8af05d5,
        type: 3}
      propertyPath: m_LocalPosition.x
      value: 0
      objectReference: {fileID: 0}
    - target: {fileID: 2378800321066952112, guid: 65942236983be0d46a68ea74b8af05d5,
        type: 3}
      propertyPath: m_LocalPosition.y
      value: -1.5000001
      objectReference: {fileID: 0}
    - target: {fileID: 2378800321066952112, guid: 65942236983be0d46a68ea74b8af05d5,
        type: 3}
      propertyPath: m_LocalPosition.z
      value: -0
      objectReference: {fileID: 0}
    - target: {fileID: 2378800321066952112, guid: 65942236983be0d46a68ea74b8af05d5,
        type: 3}
      propertyPath: m_LocalRotation.w
      value: 0.7071068
      objectReference: {fileID: 0}
    - target: {fileID: 2378800321066952112, guid: 65942236983be0d46a68ea74b8af05d5,
        type: 3}
      propertyPath: m_LocalRotation.x
      value: 0.7071068
      objectReference: {fileID: 0}
    - target: {fileID: 2378800321066952112, guid: 65942236983be0d46a68ea74b8af05d5,
        type: 3}
      propertyPath: m_LocalRotation.y
      value: -0
      objectReference: {fileID: 0}
    - target: {fileID: 2378800321066952112, guid: 65942236983be0d46a68ea74b8af05d5,
        type: 3}
      propertyPath: m_LocalRotation.z
      value: -0
      objectReference: {fileID: 0}
    - target: {fileID: 2378800321066952112, guid: 65942236983be0d46a68ea74b8af05d5,
        type: 3}
      propertyPath: m_LocalEulerAnglesHint.x
      value: 90
      objectReference: {fileID: 0}
    - target: {fileID: 2378800321066952112, guid: 65942236983be0d46a68ea74b8af05d5,
        type: 3}
      propertyPath: m_LocalEulerAnglesHint.y
      value: 0
      objectReference: {fileID: 0}
    - target: {fileID: 2378800321066952112, guid: 65942236983be0d46a68ea74b8af05d5,
        type: 3}
      propertyPath: m_LocalEulerAnglesHint.z
      value: 0
      objectReference: {fileID: 0}
    - target: {fileID: 2378800321066952113, guid: 65942236983be0d46a68ea74b8af05d5,
        type: 3}
      propertyPath: SizeModule.enabled
      value: 1
      objectReference: {fileID: 0}
    - target: {fileID: 2378800321066952113, guid: 65942236983be0d46a68ea74b8af05d5,
        type: 3}
      propertyPath: SizeModule.separateAxes
      value: 0
      objectReference: {fileID: 0}
    - target: {fileID: 2378800321066952113, guid: 65942236983be0d46a68ea74b8af05d5,
        type: 3}
      propertyPath: InitialModule.startLifetime.scalar
      value: 3.5
      objectReference: {fileID: 0}
    - target: {fileID: 2378800321066952113, guid: 65942236983be0d46a68ea74b8af05d5,
        type: 3}
      propertyPath: SizeModule.curve.maxCurve.m_Curve.Array.data[0].value
      value: 1
      objectReference: {fileID: 0}
    - target: {fileID: 2378800321066952113, guid: 65942236983be0d46a68ea74b8af05d5,
        type: 3}
      propertyPath: SizeModule.curve.maxCurve.m_Curve.Array.data[1].value
      value: 0
      objectReference: {fileID: 0}
    - target: {fileID: 2378800321066952113, guid: 65942236983be0d46a68ea74b8af05d5,
        type: 3}
      propertyPath: SizeModule.curve.maxCurve.m_Curve.Array.data[0].inSlope
      value: -1
      objectReference: {fileID: 0}
    - target: {fileID: 2378800321066952113, guid: 65942236983be0d46a68ea74b8af05d5,
        type: 3}
      propertyPath: SizeModule.curve.maxCurve.m_Curve.Array.data[1].inSlope
      value: -1
      objectReference: {fileID: 0}
    - target: {fileID: 2378800321066952113, guid: 65942236983be0d46a68ea74b8af05d5,
        type: 3}
      propertyPath: SizeModule.curve.maxCurve.m_Curve.Array.data[0].inWeight
      value: 0
      objectReference: {fileID: 0}
    - target: {fileID: 2378800321066952113, guid: 65942236983be0d46a68ea74b8af05d5,
        type: 3}
      propertyPath: SizeModule.curve.maxCurve.m_Curve.Array.data[0].outSlope
      value: -1
      objectReference: {fileID: 0}
    - target: {fileID: 2378800321066952113, guid: 65942236983be0d46a68ea74b8af05d5,
        type: 3}
      propertyPath: SizeModule.curve.maxCurve.m_Curve.Array.data[1].inWeight
      value: 0
      objectReference: {fileID: 0}
    - target: {fileID: 2378800321066952113, guid: 65942236983be0d46a68ea74b8af05d5,
        type: 3}
      propertyPath: SizeModule.curve.maxCurve.m_Curve.Array.data[1].outSlope
      value: -1
      objectReference: {fileID: 0}
    - target: {fileID: 2378800321066952113, guid: 65942236983be0d46a68ea74b8af05d5,
        type: 3}
      propertyPath: SizeModule.curve.maxCurve.m_Curve.Array.data[0].outWeight
      value: 0
      objectReference: {fileID: 0}
    - target: {fileID: 2378800321066952113, guid: 65942236983be0d46a68ea74b8af05d5,
        type: 3}
      propertyPath: SizeModule.curve.maxCurve.m_Curve.Array.data[1].outWeight
      value: 0
      objectReference: {fileID: 0}
    - target: {fileID: 2378800321066952113, guid: 65942236983be0d46a68ea74b8af05d5,
        type: 3}
      propertyPath: SizeModule.curve.maxCurve.m_Curve.Array.data[0].tangentMode
      value: 34
      objectReference: {fileID: 0}
    - target: {fileID: 2378800321066952113, guid: 65942236983be0d46a68ea74b8af05d5,
        type: 3}
      propertyPath: SizeModule.curve.maxCurve.m_Curve.Array.data[1].tangentMode
      value: 34
      objectReference: {fileID: 0}
    m_RemovedComponents: []
  m_SourcePrefab: {fileID: 100100000, guid: 65942236983be0d46a68ea74b8af05d5, type: 3}
